{
  "project_info": {
    "project_number": "599167234876",
    "firebase_url": "https://test-3a07d.firebaseio.com",
    "project_id": "test-3a07d",
    "storage_bucket": "test-3a07d.appspot.com"
  },
  "client": [
    {
      "client_info": {
        "mobilesdk_app_id": "1:599167234876:android:c925c93c2a60720b",
        "android_client_info": {
          "package_name": "asanee.tosaganjana.kku.ac.th.testclass"
        }
      },
      "oauth_client": [
        {
          "client_id": "599167234876-odvv6r8jt19v4kh7sgeratggi9r7o98c.apps.googleusercontent.com",
          "client_type": 1,
          "android_info": {
            "package_name": "asanee.tosaganjana.kku.ac.th.testclass",
            "certificate_hash": "371f4e89cb28729d256f3631314cacac9b3ce597"
          }
        },
        {
          "client_id": "599167234876-mbhcnbcslccnmkbg5nchfsl12qktpprd.apps.googleusercontent.com",
          "client_type": 3
        }
      ],
      "api_key": [
        {
          "current_key": "AIzaSyAJcseQ_54unWcPhALLs6jOlEkx6wicNDU"
        }
      ],
      "services": {
        "analytics_service": {
          "status": 1
        },
        "appinvite_service": {
          "status": 2,
          "other_platform_oauth_client": [
            {
              "client_id": "599167234876-mbhcnbcslccnmkbg5nchfsl12qktpprd.apps.googleusercontent.com",
              "client_type": 3
            }
          ]
        },
        "ads_service": {
          "status": 2
        }
      }
    },
    {
      "client_info": {
        "mobilesdk_app_id": "1:599167234876:android:0aa7e9dcc323988d",
        "android_client_info": {
          "package_name": "coe24.wdp01.com.checkover"
        }
      },
      "oauth_client": [
        {
          "client_id": "599167234876-q2b9dv798b4osbgp2dbgv3rqm1v5nrol.apps.googleusercontent.com",
          "client_type": 1,
          "android_info": {
            "package_name": "coe24.wdp01.com.checkover",
            "certificate_hash": "371f4e89cb28729d256f3631314cacac9b3ce597"
          }
        },
        {
          "client_id": "599167234876-mbhcnbcslccnmkbg5nchfsl12qktpprd.apps.googleusercontent.com",
          "client_type": 3
        }
      ],
      "api_key": [
        {
          "current_key": "AIzaSyAJcseQ_54unWcPhALLs6jOlEkx6wicNDU"
        }
      ],
      "services": {
        "analytics_service": {
          "status": 1
        },
        "appinvite_service": {
          "status": 2,
          "other_platform_oauth_client": [
            {
              "client_id": "599167234876-mbhcnbcslccnmkbg5nchfsl12qktpprd.apps.googleusercontent.com",
              "client_type": 3
            }
          ]
        },
        "ads_service": {
          "status": 2
        }
      }
    }
  ],
  "configuration_version": "1"
}